…
1. Sometimes, we want to know the year of a game happening instead of
   the exact dates. So let's split the dates into three columns:
   `year`, `mon`, and `day`, and save the result tibble to `fu_separated`.
   To do that, you can use:
      - `separate` to separate the first column `date`
        (hint : use `sep = "[-]+"` in `separate`, you'll learn about
         regular expressions later on.)

   To check your answer:

   The output of `print(fu_separated, n = 5)` is

   ```
   # A tibble: 40,945 x 11
     year  mon   day   home_team away_team home_score away_score
     <chr> <chr> <chr> <chr>     <chr>          <dbl>      <dbl>
   1 1872  11    30    Scotland  England            0          0
   2 1873  03    08    England   Scotland           4          2
   3 1874  03    07    Scotland  England            2          1
   4 1875  03    06    England   Scotland           2          2
   5 1876  03    04    Scotland  England            3          0
   # … with 40,940 more rows, and 4 more variables: tournament <chr>,
   #   city <chr>, country <chr>, neutral <lgl>
   ```
…
2. Notice that the data is recorded per game instead of per team. Suppose
   that we want to have to study the game data per team with the following
   information: `year`, `mon`, `day`, `home_score`, `away_score`,
   `tournament`, `city`, `country`, `neutral`, `team_type`, `team`.
   To do that, we need to list all the games each team played: thus, each
   game will be recorded twice, once for the home team and once for
   the away team.
   Extract such a tibble from `fu_separated` and assign it to `fu_tidy`.

   To check your answer:

   The output of `print(fu_tidy, n = 5)` is

   ```
   # A tibble: 81,890 x 11
     year  mon   day   home_score away_score tournament city  country
     <chr> <chr> <chr>      <dbl>      <dbl> <chr>      <chr> <chr>
   1 1872  11    30             0          0 Friendly   Glas… Scotla…
   2 1872  11    30             0          0 Friendly   Glas… Scotla…
   3 1873  03    08             4          2 Friendly   Lond… England
   4 1873  03    08             4          2 Friendly   Lond… England
   5 1874  03    07             2          1 Friendly   Glas… Scotla…
   # … with 81,885 more rows, and 3 more variables: neutral <lgl>,
   #   team_type <chr>, team <chr>
   ```
…
3. Now, notice that the two columns `home_score` and `away_score` are
   impractical: they do not indicate whether they correpond to goals scored
   or conceded. Additionally, an important statistic is the goal difference,
   namely the difference between goals scored and conceded.
   From `fu_tidy`, let's extract a tibble `fu_team` that contains
   `year`, `mon`, `day`, `scored`, `conceded`, `gd`, `team`,
   `city`, `country`.

   To check your answer:

   The output of `print(fu_team, n = 5)` is

   ```
   # A tibble: 81,890 x 9
     year  mon   day   scored conceded    gd team     city    country
     <chr> <chr> <chr>  <dbl>    <dbl> <dbl> <chr>    <chr>   <chr>
   1 1872  11    30         0        0     0 Scotland Glasgow Scotland
   2 1872  11    30         0        0     0 England  Glasgow Scotland
   3 1873  03    08         4        2     2 England  London  England
   4 1873  03    08         2        4    -2 Scotland London  England
   5 1874  03    07         2        1     1 Scotland Glasgow Scotland
   # … with 81,885 more rows
   ```
…
   


   

4. The `city` and `country` column represents where the game was held.
   From `fu_team`, extract a tibble `fu_city` that concatenate the city
   and country information into one column called `place`.

   To check your answer:

   The output of `print(fu_city, n = 5)` is

   ```
   # A tibble: 81,890 x 8
     year  mon   day   scored conceded    gd team     place
     <chr> <chr> <chr>  <dbl>    <dbl> <dbl> <chr>    <chr>
   1 1872  11    30         0        0     0 Scotland Glasgow_Scotland
   2 1872  11    30         0        0     0 England  Glasgow_Scotland
   3 1873  03    08         4        2     2 England  London_England
   4 1873  03    08         2        4    -2 Scotland London_England
   5 1874  03    07         2        1     1 Scotland Glasgow_Scotland
   # … with 81,885 more rows
   ```
…
   ```

   

5. From `fu_city`, let's extract `fu_england`, a tibble containing
   the yearly average goals scored, goals conceded, and goal differences
   for the English team evolved over the years, sorted by descending
   goal differences, descending goals scored, and ascending goals conceded.

   To check your answer:

   The output of `print(fu_england, n = 5)` is

   ```
   # A tibble: 139 x 4
     year  scored conceded    gd
     <chr>  <dbl>    <dbl> <dbl>
   1 1899    6.33    1      5.33
   2 1908    5.57    0.714  4.86
   3 1893    5.67    1      4.67
   4 1888    5       0.667  4.33
   5 1891    5       1      4
   # … with 134 more rows
   ```
…
   To check your answer:

   The output of `print(fu_tidy2, n = 5)` is

   ```
   # A tibble: 81,890 x 6
     date       tournament team_type team     scored  year
     <date>     <chr>      <chr>     <chr>     <dbl> <dbl>
   1 1872-11-30 Friendly   home_team Scotland      0  1872
   2 1872-11-30 Friendly   away_team England       0  1872
   3 1873-03-08 Friendly   home_team England       4  1873
   4 1873-03-08 Friendly   away_team Scotland      2  1873
   5 1874-03-07 Friendly   home_team Scotland      2  1874
   # … with 81,885 more rows
   ```
…
### Visualization

7. From `fu_tidy2`, let's now look at the yearly number of goals scored from
   2000 to 2019 for teams England, Germany, France, Belgium, Italy and Spain.
   We'll do that by extracting `fu1`, a tibble obtained by grouping by team
   and year and summing the number of goals for each groups,
   before filtering appropriately and transforming `team` as a factor
   sorted by median goals scored.

   To check your answer:

   The output of `print(fu1, n = 5)` is

   ```
   # A tibble: 120 x 3
     team     year scored
     <fct>   <dbl>  <dbl>
   1 Belgium  2000     16
   2 Belgium  2001     25
   3 Belgium  2002     14
   4 Belgium  2003     16
   5 Belgium  2004      6
   # … with 115 more rows
   ```
…
   ```

9. Before proceeding to the next plot, let's first create a tibble `fu2`
   containing the relevant data: it should be obtained from `fu_tidy2` by
   transforming `tournament` into a factor containing the levels
   `"FIFA World Cup"`, `"UEFA Euro"`, and `"UEFA Nations League"`,
   dropping NAs (i.e., observations for all other tournaments), and
   filtering for the same 6 teams as well as observations from 2000 onwards.

   To check your answer:

   The output of `print(fu2, n = 5)` is

   ```
   # A tibble: 279 x 6
     date       tournament team_type team    scored  year
     <date>     <fct>      <chr>     <chr>    <dbl> <dbl>
   1 2000-06-10 UEFA Euro  home_team Belgium      2  2000
   2 2000-06-11 UEFA Euro  home_team France       3  2000
   3 2000-06-11 UEFA Euro  away_team Italy        2  2000
   4 2000-06-12 UEFA Euro  home_team Germany      1  2000
   5 2000-06-12 UEFA Euro  away_team England      2  2000
   # … with 274 more rows
   ```
…
   ggplot(fu2, aes(team, fill = tournament ))+
   geom_bar( position=position_dodge())
   
   ```

11. Use `fu_tidy2` to extract `fu3`, containing a ranking the national teams
   by World cup attendance filtered for those having attended at least 9
   times.

   To check your answer:

   The output of `print(fu3, n = 5)` is

   ```
   # A tibble: 18 x 2
     team          n
     <chr>     <int>
   1 Brazil       21
   2 Germany      19
   3 Italy        18
   4 Argentina    17
   5 Mexico       16
   # … with 13 more rows
   ```
…
