…
### Wrangling

1. From the `nations` tibble, extract a tibble `longevity` of dimension
   175 x 5 that contains the `country`, `gdp_percap`, `life_expect`,
   `population` and `region` columns.
   The dataset should be filtered for the observations in 2016 where the
   columns `life_expect` and `gdp_percap` are not NA.

   To check your answer:

   The output of `print(longevity, n = 5)` is

   ```
   # A tibble: 175 x 5
     country         gdp_percap life_expect population region
     <chr>                <dbl>       <dbl>      <dbl> <chr>
   1 United Arab Em…     72400.        77.3    9269612 Middle East & Nor…
   2 Afghanistan          1944.        63.7   34656032 South Asia
   3 Antigua and Ba…     22661.        76.4     100963 Latin America & C…
   4 Albania             11540.        78.3    2876101 Europe & Central …
   5 Armenia              8833.        74.6    2924816 Europe & Central …
   # … with 170 more rows
   ```
…
2. From `longevity`, extract a new tibble `ea_na_75_85` of dimension 15 x 5
   that contains the `country`, `gdp_percap`, `life_expect`, `population` and
   `region` columns.
   The dataset should be filtered for countries in `"East Asia & Pacific"` or
   `"North America"`, with `life_expect` between 75 and 85 included.
   It should be sorted by decreasing `life_expect`.

   To check your answer:

   The output of `print(ea_na_75_85, n = 5)` is

   ```
   # A tibble: 15 x 5
     country           gdp_percap life_expect population region
     <chr>                  <dbl>       <dbl>      <dbl> <chr>
   1 Hong Kong SAR, C…     58618.        84.2    7336600 East Asia & Pac…
   2 Japan                 42281.        84.0  126994511 East Asia & Pac…
   3 Macao SAR, China     105420.        83.8     612167 East Asia & Pac…
   4 Singapore             87833.        82.8    5607283 East Asia & Pac…
   5 Australia             46012.        82.5   24210809 East Asia & Pac…
   # … with 10 more rows
   ```
…
3. From `longevity` again, extract a tibble `top_10_perc_us` of dimension
   19 x 6 that contains the `country`, `gdp_percap`, `life_expect`,
   `population`, `region` and `perc_rank` columns, where
   `perc_rank` is a new column corresponding to the percentile rank for
   `life_expect` (hint: use `percent_rank()`). The dataset should be sorted
   by decreasing `perc_rank` and filtered for countries with top 10%
   `perc_rank` (i.e., `perc_rank` >= 0.9), plus `"United States"` (whose rank
   may lie outside the top 10%).

   To check your answer:

   The output of `print(top_10_perc_us, n = 5)` is

   ```
   # A tibble: 19 x 6
     country      gdp_percap life_expect population region      perc_rank
     <chr>             <dbl>       <dbl>      <dbl> <chr>           <dbl>
   1 Hong Kong S…     58618.        84.2    7336600 East Asia …     1.
   2 Japan            42281.        84.0  126994511 East Asia …     0.994
   3 Macao SAR, …    105420.        83.8     612167 East Asia …     0.989
   4 Switzerland      63889.        82.9    8372413 Europe & C…     0.983
   5 Spain            36305.        82.8   46484533 Europe & C…     0.977
   # … with 14 more rows
   ```
…
4. From `nations`, extract a tibble `gdp_by_region` of dimension 189 x 3
   that contains the `region`, `year` and `total_gdp` columns, where
   `total_gdp` is a new column containing the total real GDP by
   `region` and `year`, with real GDP being the product of `gdp_percap` and
   `population`. The unit of `total_gdp` should be trillions of dollars
   (hint: divide the result by 1000000000000).

   To check your answer:

   The output of `print(gdp_by_region, n = 5)` is

   ```
   # A tibble: 189 x 3
   # Groups:   region [7]
     region               year total_gdp
     <chr>               <dbl>     <dbl>
   1 East Asia & Pacific  1990      5.59
   2 East Asia & Pacific  1991      6.10
   3 East Asia & Pacific  1992      6.57
   4 East Asia & Pacific  1993      7.11
   5 East Asia & Pacific  1994      7.71
   # … with 184 more rows
   ```
…
